{
  "project_info": {
    "project_number": "152264410299",
    "firebase_url": "https://cinema-7ff3d.firebaseio.com",
    "project_id": "cinema-7ff3d",
    "storage_bucket": "cinema-7ff3d.appspot.com"
  },
  "client": [
    {
      "client_info": {
        "mobilesdk_app_id": "1:152264410299:android:ac1d9fee1cfc1ae9",
        "android_client_info": {
          "package_name": "com.michalb.cinemaapp"
        }
      },
      "oauth_client": [
        {
          "client_id": "152264410299-0sdeucct66v142bdl9o0q36s1v6jmhsr.apps.googleusercontent.com",
          "client_type": 3
        }
      ],
      "api_key": [
        {
          "current_key": "AIzaSyDqzBbInt7PY3Ou4V1svE8yb22SWyeeX2g"
        }
      ],
      "services": {
        "analytics_service": {
          "status": 1
        },
        "appinvite_service": {
          "status": 1,
          "other_platform_oauth_client": []
        },
        "ads_service": {
          "status": 2
        }
      }
    }
  ],
  "configuration_version": "1"
}